…
``` r
#checking the species types
vancouver_trees %>% distinct(species_name)
```

    ## # A tibble: 283 × 1
    ##    species_name
    ##    <chr>       
    ##  1 AMERICANA   
    ##  2 SERRATA     
    ##  3 JAPONICA    
    ##  4 CAMPESTRE   
    ##  5 CALLERYANA  
    ##  6 PLATANOIDES 
    ##  7 EUCHLORA   X
    ##  8 SYRIACA     
    ##  9 OXYCARPA    
    ## 10 STYRACIFLUA 
    ## # … with 273 more rows

``` r
#checking species type counts
vancouver_trees %>%  count(species_name, sort = TRUE)
```

    ## # A tibble: 283 × 2
    ##    species_name     n
    ##    <chr>        <int>
    ##  1 SERRULATA    13357
    ##  2 CERASIFERA   12031
    ##  3 PLATANOIDES  11963
    ##  4 RUBRUM        8467
    ##  5 AMERICANA     5515
    ##  6 SYLVATICA     5285
    ##  7 BETULUS       5195
    ##  8 EUCHLORA   X  4427
    ##  9 FREEMANI   X  4164
    ## 10 CAMPESTRE     3477
    ## # … with 273 more rows
…
